…
- Navigate the map, click through clusters of properties
- Get price for individual marker (property)
- Change the style of the map reactively
- Set the number of properties
- Set the range of the prices
- Explore the actual distribution of prices 
- Observe code execution as it happens


From ggplot2 to plotly (example)
========================================================


```
# A tibble: 2,304 × 1
   labels
    <chr>
1       7
2      10
3       5
4       2
5       3
6       1
7       5
8       8
9      25
10      8
# ... with 2,294 more rows
```
…
